non-->204
)-->76
più-->55
ieri-->46
c'-->39
(-->30
Non-->29
ci-->29
ancora-->26
poi-->26
già-->24
solo-->23
dopo-->20
ora-->19
così-->18
là-->17
molto-->16
oggi-->14
sempre-->13
fa-->12
intanto-->12
proprio-->10
Intanto-->9
mai-->9
oltre-->9
Oggi-->8
Quanto-->8
adesso-->8
ce-->8
certo-->8
invece-->8
probabilmente-->8
quindi-->8
vi-->8
Ieri-->7
Solo-->7
perchè-->7
quanto-->7
Comunque-->6
Ora-->6
Proprio-->6
Qui-->6
ecco-->6
forse-->6
improvvisamente-->6
ovviamente-->6
po'-->6
sostanzialmente-->6
tanto-->6
C'-->5
Più-->5
Poi-->5
altrettanto-->5
assieme-->5
cioè-->5
davanti-->5
immediatamente-->5
lì-->5
poco-->5
prima-->5
pure-->5
Adesso-->4
Certo-->4
Fortunatamente-->4
Oltre-->4
Sì-->4
assolutamente-->4
esattamente-->4
giù-->4
incontro-->4
inoltre-->4
meglio-->4
ormai-->4
pm-->4
quali-->4
soprattutto-->4
subito-->4
tuttavia-->4
Così-->3
Ecco-->3
Già-->3
Ormai-->3
Purtroppo-->3
Stasera-->3
appena-->3
attualmente-->3
brevemente-->3
committente-->3
domani-->3
indietro-->3
insieme-->3
laggiù-->3
praticamente-->3
tardi-->3
Assieme-->2
Ci-->2
Decisamente-->2
Dietro-->2
Forse-->2
Infine-->2
Invece-->2
Probabilmente-->2
Vi-->2
addirittura-->2
anzi-->2
ben-->2
bene-->2
chiaro-->2
circa-->2
concretamente-->2
disparte-->2
disperatamente-->2
finora-->2
male-->2
mediamente-->2
meno-->2
nemmeno-->2
perfettamente-->2
personalmente-->2
quasi-->2
rapidamente-->2
sensibilmente-->2
sicuramente-->2
soltanto-->2
successivamente-->2
sì-->2
talvolta-->2
tuttora-->2
Allora-->1
Certamente-->1
E-->1
Francamente-->1
No-->1
Perché-->1
Piuttosto-->1
Prima-->1
Teoricamente-->1
abbastanza-->1
altrove-->1
ampiamente-->1
avanti-->1
complessivamente-->1
completamente-->1
comunque-->1
dietro-->1
effettivamente-->1
equamente-->1
finalmente-->1
fuori-->1
gentilmente-->1
giustamente-->1
illegalmente-->1
inevitabilmente-->1
infine-->1
insomma-->1
m'-->1
n'-->1
no-->1
parzialmente-->1
perfino-->1
pesantemente-->1
piuttosto-->1
positivamente-->1
presto-->1
pur-->1
qui-->1
quotidianamente-->1
raramente-->1
regolarmente-->1
rispettivamente-->1
seccamente-->1
solamente-->1
spesso-->1
stamattina-->1
stasera-->1
t-->1
talmente-->1
troppo-->1
via-->1
